{
  "swagger": "2.0",
  "info": {
    "version": "1.0",
    "title": "Mulesoft Swagger",
    "contact": {}
  },
  "host": "api01-dev.shell.com",
  "basePath": "/gamma-db-pt-api/api/data",
  "securityDefinitions": {
    "auth": {
      "type": "oauth2",
      "flow": "implicit",
      "authorizationUrl": "",
      "scopes": {
        "exp-gamma-db-pt-api/write": ""
      }
    }
  },
  "schemes": [
    "https"
  ],
  "consumes": [
    "application/json"
  ],
  "produces": [
    "application/json"
  ],
  "paths": {
    "/load": {
      "post": {
        "summary": "DataObjectDataLoad",
        "tags": [
          "Misc"
        ],
        "operationId": "DataObjectDataLoad",
        "deprecated": false,
        "produces": [
          "application/json"
        ],
        "parameters": [
          {
            "name": "Source",
            "in": "query",
            "required": true,
            "type": "string",
            "description": ""
          },
          {
            "name": "Body",
            "in": "body",
            "required": true,
            "description": "",
            "schema": {
              "$ref": "#/definitions/DataObjectDataLoadRequest"
            }
          }
        ],
        "responses": {
          "200": {
            "description": "",
            "headers": {}
          }
        },
        "security": [
          {
            "auth": [
              "exp-gamma-db-pt-api/read"
            ]
          }
        ]
      }
    }
  },
  "definitions": {
    "DataObjectDataLoadRequest": {
      "title": "DataObjectDataLoadRequest",
      "example": {
        "dataObjectId": "AFB83BB6-68E7-4C0F-B82B-1FC4F00ED818",
        "projectReference": "DO.RES.20.00345",
        "jsonObject": {
          "parameter": "Production Forecast",
          "options": [
            "Year",
            "Gas",
            "Condensate"
          ],
          "metrics": [
            "",
            "10^6 m3",
            "10^3 m3"
          ],
          "dataTable": [
            [
              "2021",
              "100",
              "10"
            ],
            [
              "2003",
              "146",
              "0"
            ]
          ],
          "version": "xx.xx.xx",
          "fileUrl": "http://somesharepoint.url"
        }
      },
      "type": "object",
      "properties": {
        "dataObjectId": {
          "type": "string"
        },
        "projectReference": {
          "type": "string"
        },
        "jsonObject": {
          "$ref": "#/definitions/JsonObject"
        }
      },
      "required": [
        "dataObjectId",
        "projectReference",
        "jsonObject"
      ]
    },
    "JsonObject": {
      "title": "JsonObject",
      "example": {
        "parameter": "Production Forecast",
        "options": [
          "Year",
          "Gas",
          "Condensate"
        ],
        "metrics": [
          "",
          "10^6 m3",
          "10^3 m3"
        ],
        "dataTable": [
          [
            "2021",
            "100",
            "10"
          ],
          [
            "2003",
            "146",
            "0"
          ]
        ],
        "version": "xx.xx.xx",
        "fileUrl": "http://somesharepoint.url"
      },
      "type": "object",
      "properties": {
        "parameter": {
          "type": "string"
        },
        "options": {
          "type": "array",
          "items": {
            "type": "string"
          }
        },
        "metrics": {
          "type": "array",
          "items": {
            "type": "string"
          }
        },
        "dataTable": {
          "type": "array",
          "items": {
            "type": "array",
            "items": {
              "type": "string"
            }
          }
        },
        "version": {
          "type": "string"
        },
        "fileUrl": {
          "type": "string"
        }
      },
      "required": [
        "parameter",
        "options",
        "metrics",
        "dataTable",
        "version",
        "fileUrl"
      ]
    }
  },
  "security": [
    {
      "auth": []
    }
  ],
  "tags": [
    {
      "name": "Misc",
      "description": ""
    }
  ]
}